…
) %>%
  filter(
    year %in% c("2015", "2016", "2017", "2018"),
    richness_type == "seeded_richness",
    !(treatment_id %in% c("2", "4"))
  ) %>%
  select(
    id_plot_year, id_plot, site, year, herbicide, seeding_time, seeded_pool,
    richness_1qm, richness_25qm, treatment_id
    ) %>%
  mutate(y = richness_1qm + richness_25qm)
sites
```

    ## # A tibble: 575 × 11
    ##    id_plot_year id_plot site      year  herbicide seeding_time seeded_pool
    ##    <fct>        <fct>   <fct>     <fct> <fct>     <fct>        <ord>      
    ##  1 Lux_10_2015  Lux_10  Lux Arbor 2015  1         spring       6          
    ##  2 Lux_10_2016  Lux_10  Lux Arbor 2016  1         spring       6          
    ##  3 Lux_10_2017  Lux_10  Lux Arbor 2017  1         spring       6          
    ##  4 Lux_10_2018  Lux_10  Lux Arbor 2018  1         spring       6          
    ##  5 Lux_11_2015  Lux_11  Lux Arbor 2015  1         spring       6          
    ##  6 Lux_11_2016  Lux_11  Lux Arbor 2016  1         spring       6          
    ##  7 Lux_11_2017  Lux_11  Lux Arbor 2017  1         spring       6          
    ##  8 Lux_11_2018  Lux_11  Lux Arbor 2018  1         spring       6          
    ##  9 Lux_12_2015  Lux_12  Lux Arbor 2015  0         fall         33         
    ## 10 Lux_12_2016  Lux_12  Lux Arbor 2016  0         fall         33         
    ## # ℹ 565 more rows
    ## # ℹ 4 more variables: richness_1qm <dbl>, richness_25qm <dbl>,
    ## #   treatment_id <fct>, y <dbl>
…
